module Espresso

go 1.13

require (
	github.com/alecthomas/template v0.0.0-20190718012654-fb15b899a751
	github.com/appleboy/gofight/v2 v2.1.2
	github.com/buger/jsonparser v1.0.0
	github.com/gin-contrib/cors v1.3.1
	github.com/gin-contrib/sessions v0.0.3
	github.com/gin-gonic/gin v1.5.0
	github.com/go-playground/validator/v10 v10.3.0
	github.com/go-sql-driver/mysql v1.5.0
	github.com/jinzhu/gorm v1.9.12
	github.com/joho/godotenv v1.3.0
	github.com/rs/xid v1.2.1
	github.com/stretchr/testify v1.6.1
	github.com/swaggo/files v0.0.0-20190704085106-630677cd5c14
	github.com/swaggo/gin-swagger v1.2.0
	github.com/swaggo/swag v1.6.5
	golang.org/x/crypto v0.0.0-20191205180655-e7c4368fe9dd
	gopkg.in/go-playground/assert.v1 v1.2.1
)
